<?xml version="1.0" encoding="utf-8"?>
<!-- Generator: Adobe Illustrator 22.1.0, SVG Export Plug-In . SVG Version: 6.00 Build 0)  -->
<svg version="1.1" id="Слой_1" xmlns="http://www.w3.org/2000/svg" xmlns:xlink="http://www.w3.org/1999/xlink" x="0px" y="0px"
	 width="7px" height="12px" viewBox="0 0 7 12" enable-background="new 0 0 7 12" xml:space="preserve">
<g>
	<g>
		<path fill-rule="evenodd" clip-rule="evenodd" fill="#2B2634" d="M5.9,5.1C5.8,5.1,5.8,5.1,5.9,5.1l-5-5c-0.2-0.2-0.5-0.2-0.7,0
			C0,0.3,0,0.7,0.1,0.9L5,5.7v0.6l-4.9,4.9c-0.2,0.2-0.2,0.5,0,0.7c0.2,0.2,0.5,0.2,0.7,0l5-5c0,0,0,0,0,0C5.9,6.8,6,6.6,6,6.5v-1
			C6,5.4,5.9,5.2,5.9,5.1z"/>
	</g>
</g>
</svg>
