<?xml version="1.0" encoding="utf-8"?>
<!-- Generator: Adobe Illustrator 22.0.1, SVG Export Plug-In . SVG Version: 6.00 Build 0)  -->
<svg version="1.1" id="Слой_1" xmlns="http://www.w3.org/2000/svg" xmlns:xlink="http://www.w3.org/1999/xlink" x="0px" y="0px"
	 width="31px" height="31px" viewBox="0 0 31 31" enable-background="new 0 0 31 31" xml:space="preserve">
<circle fill="#BA7429" cx="15.5" cy="15.5" r="15.5"/>
<g>
	<g>
		<path fill-rule="evenodd" clip-rule="evenodd" fill="#FFFFFF" d="M22,15.5c0-0.1-0.1-0.3-0.1-0.4c0,0,0,0,0,0l-5-5
			c-0.2-0.2-0.5-0.2-0.7,0c-0.2,0.2-0.2,0.5,0,0.7l4.1,4.1H8.5C8.2,15,8,15.2,8,15.5C8,15.8,8.2,16,8.5,16h11.8l-4.1,4.1
			c-0.2,0.2-0.2,0.5,0,0.7c0.2,0.2,0.5,0.2,0.7,0l5-5c0,0,0,0,0,0C21.9,15.8,22,15.6,22,15.5z"/>
	</g>
</g>
</svg>
