<?xml version="1.0" encoding="utf-8"?>
<!-- Generator: Adobe Illustrator 22.1.0, SVG Export Plug-In . SVG Version: 6.00 Build 0)  -->
<svg version="1.1" id="Layer_1" xmlns="http://www.w3.org/2000/svg" xmlns:xlink="http://www.w3.org/1999/xlink" x="0px" y="0px"
	 viewBox="0 0 530.7 111.3" style="enable-background:new 0 0 530.7 111.3;" xml:space="preserve">
<style type="text/css">
	.st0{fill:url(#SVGID_1_);}
	.st1{fill:url(#SVGID_2_);}
	.st2{fill:url(#SVGID_3_);}
	.st3{fill:url(#SVGID_4_);}
	.st4{fill:url(#SVGID_5_);}
	.st5{fill:url(#SVGID_6_);}
	.st6{fill:url(#SVGID_7_);}
	.st7{fill:url(#SVGID_8_);}
	.st8{fill:url(#SVGID_9_);}
	.st9{fill:url(#SVGID_10_);}
	.st10{fill:url(#SVGID_11_);}
	.st11{fill:url(#SVGID_12_);}
	.st12{fill:url(#SVGID_13_);}
	.st13{fill:url(#SVGID_14_);}
	.st14{fill:url(#SVGID_15_);}
	.st15{fill:url(#SVGID_16_);}
	.st16{fill:url(#SVGID_17_);}
	.st17{fill:url(#SVGID_18_);}
	.st18{fill:url(#SVGID_19_);}
	.st19{fill:url(#SVGID_20_);}
	.st20{fill:url(#SVGID_21_);}
	.st21{fill:url(#SVGID_22_);}
	.st22{fill:url(#SVGID_23_);}
	.st23{fill:url(#SVGID_24_);}
	.st24{fill:url(#SVGID_25_);}
</style>
<linearGradient id="SVGID_1_" gradientUnits="userSpaceOnUse" x1="1.5409" y1="32.8951" x2="65.541" y2="192.2281">
	<stop  offset="0" style="stop-color:#719D64"/>
	<stop  offset="1" style="stop-color:#548666"/>
</linearGradient>
<path class="st0" d="M23.1,91.3l9.4,12c1.4,1.7,1.9,2.5,3.7,2.5h7.7c0.5,0,0.8-0.1,0.9-0.4c0.2-0.3,0-0.8-0.4-1.3L30,84.9l13.6-18
	c0.4-0.5,0.6-1,0.4-1.3c-0.1-0.3-0.5-0.4-0.9-0.4h-7.5c-1.8,0-2.6,0.8-3.9,2.5l-8.5,10.8l-8.5-10.8c-1.4-1.7-2.1-2.5-3.9-2.5H3.1
	c-0.5,0-0.8,0.1-0.9,0.4c-0.2,0.3,0,0.8,0.4,1.3l14.1,18l-15,19.2c-0.4,0.5-0.6,1-0.4,1.3c0.1,0.3,0.5,0.4,0.9,0.4H10
	c1.8,0,2.3-0.8,3.7-2.5L23.1,91.3z"/>
<linearGradient id="SVGID_2_" gradientUnits="userSpaceOnUse" x1="23.2761" y1="24.1648" x2="87.2762" y2="183.4978">
	<stop  offset="0" style="stop-color:#719D64"/>
	<stop  offset="1" style="stop-color:#548666"/>
</linearGradient>
<path class="st1" d="M43.7,5.3c0-1.2-0.9-2.1-2.1-2.1H33c-1.1,0-2.7,1.1-3.5,2.4L11.7,36.9V5.2c0-1.1-1-2.1-2.1-2.1H4.4
	C3.2,3.1,2.3,4,2.3,5.3v36.4c0,1.2,1,2.1,2.1,2.1h9.7c1.3,0,2.9-1.1,3.7-2.4l16.4-29.2v29.5c0,1.2,1,2.1,2.1,2.1h5.1
	c1.2,0,2.1-1,2.1-2.1V5.3z"/>
<linearGradient id="SVGID_3_" gradientUnits="userSpaceOnUse" x1="68.1399" y1="6.144" x2="132.14" y2="165.4771">
	<stop  offset="0" style="stop-color:#719D64"/>
	<stop  offset="1" style="stop-color:#548666"/>
</linearGradient>
<path class="st2" d="M69.6,44h11.2c10.7,0,15.7-3.9,15.7-12.1c0-3.6-1.3-6-4.3-7.9l-0.8-0.5l0.7-0.6c2.4-1.8,3.8-4.6,3.8-7.9
	c0-8.1-5.5-12.2-16.4-12.2h-9c-7.2,0-15.3,4.4-15.3,10.7c0,2.6,2.3,2.6,2.4,2.6h3.5c1.5,0,2.6-0.7,3.4-2.4c1.3-2.6,3.7-3.9,7.1-3.9
	h7.1c3.5,0,7.5,0.6,7.5,5.1c0,4.5-4,5.1-7.5,5.1h-6.6c-1,0-2,1-2,2.1v2.4c0,1.2,1,2.1,2.1,2.1h7.5c3,0,7,0.5,7,5.1
	c0,4.6-4,5.1-7,5.1h-9.2c-3.1,0-5.8-1.5-6.9-3.8c-1.2-2.5-2.5-2.9-3.6-2.9h-3.5c0,0-2.4,0-2.4,2.6C54.3,39.6,62.2,44,69.6,44z"/>
<linearGradient id="SVGID_4_" gradientUnits="userSpaceOnUse" x1="115.1512" y1="-12.7391" x2="179.1513" y2="146.5939">
	<stop  offset="0" style="stop-color:#719D64"/>
	<stop  offset="1" style="stop-color:#548666"/>
</linearGradient>
<path class="st3" d="M114,43.8h7.1c8.7,0,13.8-3.6,16.6-11.5l9.5-27.3c0.2-0.5,0.1-1-0.1-1.3c-0.2-0.3-0.6-0.5-1.1-0.5h-5.9
	c-1.1,0-2.5,0.7-3.1,2.3l-5.4,15.5h-4c-5,0-8.1-2.3-10.3-7.4l-3.4-8.1c-0.5-1.3-1.9-2.2-3.3-2.2h-6.2c-0.5,0-0.9,0.2-1.1,0.5
	c-0.2,0.3-0.2,0.9,0,1.4l4.6,10.5c4,9.1,8.7,12.4,18,12.4h3.4l-0.2,0.8c-1.5,5.3-4.4,8.1-8.6,8.1h-0.6c-0.9,0-1.8-0.1-2.6-0.3
	c-0.8-0.1-1.5-0.3-2.3-0.3h-1c-1.2,0-2.1,0.9-2.1,2.1v3.3C111.8,42.8,112.8,43.8,114,43.8z"/>
<linearGradient id="SVGID_5_" gradientUnits="userSpaceOnUse" x1="160.9376" y1="-31.1303" x2="224.9377" y2="128.2027">
	<stop  offset="0" style="stop-color:#719D64"/>
	<stop  offset="1" style="stop-color:#548666"/>
</linearGradient>
<path class="st4" d="M209,5.3c0-1.2-0.9-2.2-2.1-2.2H195c-1.2,0-2.5,1-2.9,2.3l-9.2,26.7l-9.2-26.7c-0.4-1.3-1.7-2.3-2.9-2.3h-11.9
	c-1.1,0-2.1,1-2.1,2.2v36.3c0,1.2,0.9,2.2,2.1,2.2h5.3c1.2,0,2.1-1,2.1-2.2V13l1.2-0.2l10.3,28.7c0.5,1.2,1.8,2.2,3,2.2h4.2
	c1.2,0,2.5-1,3-2.2l10.3-28.7l1.2,0.2v28.6c0,1.2,0.9,2.2,2.1,2.2h5.3c1.2,0,2.1-1,2.1-2.2V5.3z"/>
<linearGradient id="SVGID_6_" gradientUnits="userSpaceOnUse" x1="210.8264" y1="-51.1695" x2="274.8265" y2="108.1634">
	<stop  offset="0" style="stop-color:#719D64"/>
	<stop  offset="1" style="stop-color:#548666"/>
</linearGradient>
<path class="st5" d="M231.8,34.4h14.6c11.3,0,17-5.3,17-15.7c0-10.4-5.7-15.7-17-15.7h-22.3c-1.2,0-2.1,0.9-2.1,2.1v36.4
	c0,1.2,1,2.1,2.1,2.1h5.5c1.2,0,2.1-1,2.1-2.1V34.4z M231.8,10.1h11.3c5.5,0,10.6,1,10.6,8.7c0,7.6-5.1,8.7-10.6,8.7h-11.3V10.1z"/>
<linearGradient id="SVGID_7_" gradientUnits="userSpaceOnUse" x1="257.4994" y1="-69.9167" x2="321.4995" y2="89.4163">
	<stop  offset="0" style="stop-color:#719D64"/>
	<stop  offset="1" style="stop-color:#548666"/>
</linearGradient>
<path class="st6" d="M279.3,43.8h7.1c8.7,0,13.8-3.6,16.6-11.5l9.5-27.3c0.2-0.5,0.1-1-0.1-1.3c-0.2-0.3-0.6-0.5-1.1-0.5h-5.9
	c-1.1,0-2.5,0.7-3,2.3l-5.4,15.5h-4c-5,0-8.1-2.3-10.3-7.4l-3.4-8.1c-0.5-1.3-1.9-2.2-3.3-2.2h-6.2c-0.5,0-0.9,0.2-1.1,0.5
	c-0.2,0.3-0.2,0.9,0,1.4l4.6,10.5c4,9.1,8.7,12.4,18,12.4h3.3l-0.2,0.8c-1.5,5.3-4.4,8.1-8.6,8.1h-0.6c-0.9,0-1.8-0.1-2.6-0.3
	c-0.8-0.1-1.5-0.3-2.3-0.3h-1c-1.2,0-2.1,0.9-2.1,2.1v3.3C277.2,42.8,278.1,43.8,279.3,43.8z"/>
<linearGradient id="SVGID_8_" gradientUnits="userSpaceOnUse" x1="342.7248" y1="-104.1499" x2="406.7249" y2="55.1831">
	<stop  offset="0" style="stop-color:#719D64"/>
	<stop  offset="1" style="stop-color:#548666"/>
</linearGradient>
<path class="st7" d="M414.4,5.3c0-1.2-1-2.1-2.2-2.1h-5.4c-1.2,0-2.1,1-2.1,2.1v13.8h-21.4V5.3c0-1.2-1-2.1-2.1-2.1h-5.4
	c-1.2,0-2.2,0.9-2.2,2.1v36.4c0,1.2,1,2.1,2.2,2.1h5.4c1.2,0,2.1-0.9,2.1-2.1V26.1h21.4v15.7c0,1.1,1,2.1,2.1,2.1h5.4
	c1.2,0,2.2-1,2.2-2.1V5.3z"/>
<g>
	<linearGradient id="SVGID_9_" gradientUnits="userSpaceOnUse" x1="411.1518" y1="-131.6349" x2="475.1519" y2="27.6981">
		<stop  offset="0" style="stop-color:#719D64"/>
		<stop  offset="1" style="stop-color:#548666"/>
	</linearGradient>
	<path class="st8" d="M478.4,5.3c0-1.2-1-2.1-2.2-2.1h-5.6c-1.2,0-2.1,1-2.1,2.1v36.5c0,1.1,1,2.1,2.1,2.1h5.6c1.2,0,2.2-1,2.2-2.1
		V5.3z"/>
	<linearGradient id="SVGID_10_" gradientUnits="userSpaceOnUse" x1="382.7333" y1="-120.2201" x2="446.7335" y2="39.1129">
		<stop  offset="0" style="stop-color:#719D64"/>
		<stop  offset="1" style="stop-color:#548666"/>
	</linearGradient>
	<path class="st9" d="M448.6,17.4H436V5.3c0-1.2-1-2.1-2.1-2.1h-5.5c-1.2,0-2.1,0.9-2.1,2.1v36.3c0,1.2,0.9,2.2,2,2.2h20.4
		c9.3,0,15.3-5.2,15.3-13.2S457.9,17.4,448.6,17.4z M448.6,36.8H436V24.4h12.7c3.6,0,5.5,2.2,5.5,6.2S452.2,36.8,448.6,36.8z"/>
</g>
<linearGradient id="SVGID_11_" gradientUnits="userSpaceOnUse" x1="441.4597" y1="-143.8089" x2="505.4598" y2="15.5241">
	<stop  offset="0" style="stop-color:#719D64"/>
	<stop  offset="1" style="stop-color:#548666"/>
</linearGradient>
<path class="st10" d="M527.5,38.8c0-1.2-0.9-2.1-2.1-2.1h-26v-9.9H522c1.2,0,2.1-1,2.1-2.1V22c0-1.1-1-2.1-2.1-2.1h-22.5v-9.8h26.1
	c1.2,0,2.1-1,2.1-2.1V5.3c0-1.2-1-2.1-2.1-2.1h-33.7c-1.2,0-2.1,0.9-2.1,2.1v36.4c0,1.2,0.9,2.2,2.1,2.2h33.6c1.2,0,2.1-1,2.1-2.1
	V38.8z"/>
<linearGradient id="SVGID_12_" gradientUnits="userSpaceOnUse" x1="92.2886" y1="-3.5558" x2="156.2887" y2="155.7771">
	<stop  offset="0" style="stop-color:#719D64"/>
	<stop  offset="1" style="stop-color:#548666"/>
</linearGradient>
<path class="st11" d="M149.6,67.5c0-1.1-0.9-2.1-1.8-2.1h-14.6c-10.9,0-16.8,3.5-18.8,10.9l-7.4,28.1c-0.1,0.4,0,0.8,0.2,1.1
	c0.3,0.3,0.7,0.5,1.1,0.5h5.9c1.3,0,2.5-1,2.9-2.3l6.7-24.5c1-3.8,4.3-6.3,8.3-6.3h7.8v31c0,1.2,1,2.1,2.1,2.1h5.6
	c1.2,0,2.1-0.9,2.1-2.1V67.5z"/>
<linearGradient id="SVGID_13_" gradientUnits="userSpaceOnUse" x1="143.6491" y1="-24.1858" x2="207.6492" y2="135.1472">
	<stop  offset="0" style="stop-color:#719D64"/>
	<stop  offset="1" style="stop-color:#548666"/>
</linearGradient>
<path class="st12" d="M213.9,67.6c0-1.2-0.9-2.2-2.1-2.2h-11.9c-1.2,0-2.5,1-2.9,2.3l-9.2,26.7l-9.2-26.7c-0.4-1.3-1.7-2.3-2.9-2.3
	h-11.9c-1.1,0-2.1,1-2.1,2.2v36.3c0,1.2,0.9,2.2,2.1,2.2h5.3c1.2,0,2.1-1,2.1-2.2V75.3l1.2-0.2l10.3,28.7c0.5,1.2,1.8,2.2,3,2.2h4.2
	c1.2,0,2.5-1,3-2.2l10.3-28.7l1.2,0.2v28.6c0,1.2,0.9,2.2,2.1,2.2h5.3c1.2,0,2.1-1,2.1-2.2V67.6z"/>
<g>
	<linearGradient id="SVGID_14_" gradientUnits="userSpaceOnUse" x1="187.6907" y1="-41.8763" x2="251.6908" y2="117.4567">
		<stop  offset="0" style="stop-color:#719D64"/>
		<stop  offset="1" style="stop-color:#548666"/>
	</linearGradient>
	<path class="st13" d="M247.1,79.6h-12.7V67.5c0-1.2-1-2.1-2.1-2.1h-5.5c-1.2,0-2.1,0.9-2.1,2.1v36.3c0,1.2,0.9,2.2,2,2.2h20.4
		c9.3,0,15.3-5.2,15.3-13.2C262.4,84.8,256.4,79.6,247.1,79.6z M247.1,99h-12.7V86.6h12.7c3.6,0,5.5,2.2,5.5,6.2S250.7,99,247.1,99z
		"/>
	<linearGradient id="SVGID_15_" gradientUnits="userSpaceOnUse" x1="216.102" y1="-53.2885" x2="280.1021" y2="106.0445">
		<stop  offset="0" style="stop-color:#719D64"/>
		<stop  offset="1" style="stop-color:#548666"/>
	</linearGradient>
	<path class="st14" d="M276.9,67.5c0-1.2-1-2.1-2.2-2.1h-5.6c-1.2,0-2.1,0.9-2.1,2.1V104c0,1.1,1,2.1,2.1,2.1h5.6
		c1.2,0,2.2-1,2.2-2.1V67.5z"/>
</g>
<linearGradient id="SVGID_16_" gradientUnits="userSpaceOnUse" x1="291.3654" y1="-83.52" x2="355.3655" y2="75.813">
	<stop  offset="0" style="stop-color:#719D64"/>
	<stop  offset="1" style="stop-color:#548666"/>
</linearGradient>
<path class="st15" d="M364.9,36.8h-2.2c0,0-0.1,0-0.1,0h-3.4V5.2c0-1.1-1-2.1-2.1-2.1h-15.8c-10.7,0-16.5,3.5-18.4,11l-5.6,22.4
	h-2.8h-1.8c-0.6,0-1.1,0.5-1.1,1.1v10.1c0,0.6,0.5,1.1,1.1,1.1h4.7c0.6,0,1.1-0.5,1.1-1.1v-3.9h38.6c0.8,0,1.5,0,2.1,0v4.2
	c0,0.6,0.5,1.1,1.1,1.1h4.7c0.6,0,1.1-0.5,1.1-1.1V37.9C366,37.3,365.5,36.8,364.9,36.8z M349.5,36.8h-22.2l5.1-20.4
	c0.9-3.9,3.8-6.2,7.7-6.2h9.4V36.8z"/>
<g>
	<linearGradient id="SVGID_17_" gradientUnits="userSpaceOnUse" x1="46.2107" y1="14.9524" x2="110.2108" y2="174.2854">
		<stop  offset="0" style="stop-color:#719D64"/>
		<stop  offset="1" style="stop-color:#548666"/>
	</linearGradient>
	<path class="st16" d="M79,73.7h-8.9c-0.6,0-1.4,0.3-1.8,0.8l-5.4,5.4c-0.4,0.4-0.8,1.3-0.8,1.8v7.6c0,0.6,0.3,1.4,0.8,1.8l5.4,5.4
		c0.4,0.4,1.3,0.8,1.8,0.8H79c0.6,0,1.4-0.3,1.8-0.8l5.4-5.4c0.4-0.4,0.8-1.3,0.8-1.8v-7.6c0-0.6-0.3-1.4-0.8-1.8l-5.4-5.4
		C80.4,74.1,79.6,73.7,79,73.7z"/>
	<linearGradient id="SVGID_18_" gradientUnits="userSpaceOnUse" x1="64.1153" y1="7.7605" x2="128.1154" y2="167.0935">
		<stop  offset="0" style="stop-color:#719D64"/>
		<stop  offset="1" style="stop-color:#548666"/>
	</linearGradient>
	<path class="st17" d="M83.3,72.4l4.8,4.8c0.4,0.4,1.2,0.6,1.8,0.3l7.2-3.1c0.5-0.2,0.7-0.8,0.2-1.2l-10-10c-0.4-0.4-1-0.3-1.2,0.2
		L83,70.7C82.7,71.2,82.9,72,83.3,72.4z"/>
	<linearGradient id="SVGID_19_" gradientUnits="userSpaceOnUse" x1="54.2801" y1="11.7113" x2="118.2802" y2="171.0443">
		<stop  offset="0" style="stop-color:#719D64"/>
		<stop  offset="1" style="stop-color:#548666"/>
	</linearGradient>
	<path class="st18" d="M69.2,69.5c0.2,0.5,0.9,1,1.5,1h7.3c0.6,0,1.3-0.4,1.5-1l3.2-7.3c0.2-0.5-0.1-1-0.7-1H66.7
		c-0.6,0-0.9,0.4-0.7,1L69.2,69.5z"/>
	<linearGradient id="SVGID_20_" gradientUnits="userSpaceOnUse" x1="37.1908" y1="18.5758" x2="101.1909" y2="177.9088">
		<stop  offset="0" style="stop-color:#719D64"/>
		<stop  offset="1" style="stop-color:#548666"/>
	</linearGradient>
	<path class="st19" d="M52.1,74.4l7.2,3.1c0.5,0.2,1.3,0.1,1.8-0.3l4.6-4.6c0.4-0.4,0.6-1.2,0.3-1.8l-3.1-7.2
		c-0.2-0.5-0.8-0.6-1.2-0.2l-9.8,9.8C51.5,73.7,51.6,74.2,52.1,74.4z"/>
	<linearGradient id="SVGID_21_" gradientUnits="userSpaceOnUse" x1="55.3479" y1="11.2824" x2="119.348" y2="170.6154">
		<stop  offset="0" style="stop-color:#719D64"/>
		<stop  offset="1" style="stop-color:#548666"/>
	</linearGradient>
	<path class="st20" d="M97.1,96.5l-7.2-3.1c-0.5-0.2-1.3-0.1-1.8,0.3l-4.6,4.6c-0.4,0.4-0.6,1.2-0.3,1.8l3.1,7.2
		c0.2,0.5,0.8,0.6,1.2,0.2l9.8-9.8C97.8,97.3,97.7,96.7,97.1,96.5z"/>
	<linearGradient id="SVGID_22_" gradientUnits="userSpaceOnUse" x1="28.2031" y1="22.1857" x2="92.2032" y2="181.5187">
		<stop  offset="0" style="stop-color:#719D64"/>
		<stop  offset="1" style="stop-color:#548666"/>
	</linearGradient>
	<path class="st21" d="M58.9,88.5V82c0-0.6-0.4-1.3-1-1.5l-7.3-3.1c-0.5-0.2-1,0.1-1,0.7v14.3c0,0.6,0.4,0.9,1,0.7l7.3-3
		C58.5,89.8,58.9,89.1,58.9,88.5z"/>
	<linearGradient id="SVGID_23_" gradientUnits="userSpaceOnUse" x1="37.9312" y1="18.2779" x2="101.9313" y2="177.6109">
		<stop  offset="0" style="stop-color:#719D64"/>
		<stop  offset="1" style="stop-color:#548666"/>
	</linearGradient>
	<path class="st22" d="M80,101.5c-0.2-0.5-0.9-1-1.5-1h-8c-0.6,0-1.3,0.4-1.5,1l-3.2,7.3c-0.2,0.5,0.1,1,0.6,1h16.2
		c0.6,0,0.9-0.4,0.6-1L80,101.5z"/>
	<linearGradient id="SVGID_24_" gradientUnits="userSpaceOnUse" x1="64.3626" y1="7.6615" x2="128.3627" y2="166.9945">
		<stop  offset="0" style="stop-color:#719D64"/>
		<stop  offset="1" style="stop-color:#548666"/>
	</linearGradient>
	<path class="st23" d="M98.5,77.7l-7.3,3.1c-0.5,0.2-1,0.9-1,1.5v6.3c0,0.6,0.4,1.3,1,1.5l7.3,3.1c0.5,0.2,1-0.1,1-0.7V78.3
		C99.5,77.7,99,77.4,98.5,77.7z"/>
	<linearGradient id="SVGID_25_" gradientUnits="userSpaceOnUse" x1="28.1852" y1="22.1929" x2="92.1853" y2="181.5259">
		<stop  offset="0" style="stop-color:#719D64"/>
		<stop  offset="1" style="stop-color:#548666"/>
	</linearGradient>
	<path class="st24" d="M65.4,98.2l-4.4-4.4c-0.4-0.4-1.2-0.6-1.8-0.3l-7.3,3c-0.5,0.2-0.7,0.8-0.2,1.2l9.6,9.6
		c0.4,0.4,1,0.3,1.2-0.2l3.1-7.2C66,99.4,65.8,98.6,65.4,98.2z"/>
</g>
</svg>
