<?xml version="1.0" encoding="utf-8"?>
<!-- Generator: Adobe Illustrator 22.1.0, SVG Export Plug-In . SVG Version: 6.00 Build 0)  -->
<svg version="1.1" id="df_1_" xmlns="http://www.w3.org/2000/svg" xmlns:xlink="http://www.w3.org/1999/xlink" x="0px" y="0px"
	 width="22px" height="22px" viewBox="0 0 22 22" enable-background="new 0 0 22 22" xml:space="preserve">
<path fill-rule="evenodd" clip-rule="evenodd" fill="#F7941E" d="M11,7c2.2,0,4,1.8,4,4s-1.8,4-4,4s-4-1.8-4-4S8.8,7,11,7z"/>
<path opacity="0.5" fill-rule="evenodd" clip-rule="evenodd" fill="#F7941E" d="M11,0c6.1,0,11,4.9,11,11c0,6.1-4.9,11-11,11
	S0,17.1,0,11C0,4.9,4.9,0,11,0z"/>
</svg>
