<?xml version="1.0" encoding="utf-8"?>
<!-- Generator: Adobe Illustrator 22.1.0, SVG Export Plug-In . SVG Version: 6.00 Build 0)  -->
<svg version="1.1" id="floor" xmlns="http://www.w3.org/2000/svg" xmlns:xlink="http://www.w3.org/1999/xlink" x="0px" y="0px"
	 width="19px" height="15px" viewBox="0 0 19 15" enable-background="new 0 0 19 15" xml:space="preserve">
<g>
	<g>
		<path fill-rule="evenodd" clip-rule="evenodd" fill="#1DA66D" d="M0,0v15h6V6h7v9h6V0H0z M5,14H1V9h4V14z M5,8H1V1h4V8z M6,5V1h7
			v4H6z M14,14V9h4v5H14z M18,8h-4V1h4V8z"/>
	</g>
</g>
</svg>
