<?xml version="1.0" encoding="utf-8"?>
<!-- Generator: Adobe Illustrator 22.1.0, SVG Export Plug-In . SVG Version: 6.00 Build 0)  -->
<svg version="1.1" id="Слой_1" xmlns="http://www.w3.org/2000/svg" xmlns:xlink="http://www.w3.org/1999/xlink" x="0px" y="0px"
	 width="19px" height="13px" viewBox="0 0 19 13" enable-background="new 0 0 19 13" xml:space="preserve">
<g>
	<g>
		<path fill="#F7941E" d="M9.5,0C3.6,0,0,6.5,0,6.5S3.6,13,9.5,13c5.9,0,9.5-6.5,9.5-6.5S15.4,0,9.5,0z M9.5,12C4.2,12,1,6.5,1,6.5
			S4.2,1,9.5,1C14.8,1,18,6.5,18,6.5S14.8,12,9.5,12z M9.5,2C7,2,5,4,5,6.5C5,9,7,11,9.5,11C12,11,14,9,14,6.5C14,4,12,2,9.5,2z
			 M9.5,10C7.6,10,6,8.5,6,6.5C6,4.6,7.6,3,9.5,3C11.4,3,13,4.6,13,6.5C13,8.5,11.4,10,9.5,10z"/>
	</g>
</g>
</svg>
