<?xml version="1.0" encoding="utf-8"?>
<!-- Generator: Adobe Illustrator 22.1.0, SVG Export Plug-In . SVG Version: 6.00 Build 0)  -->
<svg version="1.1" id="df_1_" xmlns="http://www.w3.org/2000/svg" xmlns:xlink="http://www.w3.org/1999/xlink" x="0px" y="0px"
	 width="13px" height="13px" viewBox="0 0 13 13" enable-background="new 0 0 13 13" xml:space="preserve">
<g>
	<g>
		<path fill="#FFFFFF" d="M2,8H0v5h5v-2H2V8z M0,5h2V2h3V0H0V5z M8,0v2h3v3h2V0H8z M11,11H8v2h5V8h-2V11z"/>
	</g>
</g>
</svg>
