<?xml version="1.0" encoding="utf-8"?>
<!-- Generator: Adobe Illustrator 22.1.0, SVG Export Plug-In . SVG Version: 6.00 Build 0)  -->
<svg version="1.1" id="df_1_" xmlns="http://www.w3.org/2000/svg" xmlns:xlink="http://www.w3.org/1999/xlink" x="0px" y="0px"
	 width="14px" height="24px" viewBox="0 0 14 24" enable-background="new 0 0 14 24" xml:space="preserve">
<g>
	<g>
		<path fill="#FFFFFF" d="M13.3,11.1l-11-11C2.1-0.1,1.3,0.1,0.7,0.7C0.1,1.3-0.2,2.1,0.1,2.4L9.7,12l-9.6,9.6
			c-0.3,0.3-0.1,1.1,0.6,1.7c0.6,0.6,1.4,0.9,1.7,0.6l11-11c0.2-0.2,0.2-0.5,0-0.9C13.5,11.6,13.5,11.3,13.3,11.1z"/>
	</g>
</g>
</svg>
