<?xml version="1.0" encoding="utf-8"?>
<!-- Generator: Adobe Illustrator 21.1.0, SVG Export Plug-In . SVG Version: 6.00 Build 0)  -->
<svg version="1.1" id="Слой_1" xmlns="http://www.w3.org/2000/svg" xmlns:xlink="http://www.w3.org/1999/xlink" x="0px" y="0px"
	 width="49px" height="13px" viewBox="0 0 49 13" enable-background="new 0 0 49 13" xml:space="preserve">
<title>Artboard 1</title>
<g>
	<g>
		<path fill-rule="evenodd" clip-rule="evenodd" fill="#F69300" d="M18,3h3V0h-3V3z M23,3h3V0h-3V3z M23,13h3v-3h-3V13z M18,13h3v-3
			h-3V13z M18,8h3V5h-3V8z M23,8h3V5h-3V8z M28,3h3V0h-3V3z M28,13h3v-3h-3V13z M28,8h3V5h-3V8z M6,1H5v1H4v1H3v1H2v1H1v1H0v1h1v1h1
			v1h1v1h1v1h1v1h1v1h2v-2H7v-1H6V9H5V8H4V7H3V6h1V5h1V4h1V3h1V2h1V0H6V1z M48,6V5h-1V4h-1V3h-1V2h-1V1h-1V0h-2v2h1v1h1v1h1v1h1v1h1
			v1h-1v1h-1v1h-1v1h-1v1h-1v2h2v-1h1v-1h1v-1h1V9h1V8h1V7h1V6H48z"/>
	</g>
</g>
</svg>
