{
	"parkingItems": [
	{
		"id": 100,
		"href": "\/choose\/flat-164\/",
		"plan": "",
		"house": "2",
		"num": 1,
		"floor": 2,
		"price": 10567456
	},
	{
		"id": 200,
		"href": "\/choose\/flat-164\/",
		"plan": "http://etalonnormand.ru",
		"house": "2\u0430",
		"num": 1,
		"floor": 14,
		"price": 20567456
	},
	{
		"id": 300,
		"href": "\/choose\/flat-164\/",
		"plan": "http://etalonnormand.ru",
		"house": "2\u0430",
		"num": 1,
		"floor": 14,
		"price": 30567456
	},
	{
		"id": 400,
		"href": "\/choose\/flat-164\/",
		"plan": "http://etalonnormand.ru",
		"house": "2\u0430",
		"num": 1,
		"floor": 2,
		"price": 40567456
	},
	{
		"id": 400,
		"href": "\/choose\/flat-164\/",
		"plan": "http://etalonnormand.ru",
		"house": "2\u0430",
		"num": 1,
		"floor": 2,
		"price": 40567456
	},
	{
		"id": 400,
		"href": "\/choose\/flat-164\/",
		"plan": "http://etalonnormand.ru",
		"house": "2\u0430",
		"num": 1,
		"floor": 2,
		"price": 40567456
	},
	{
		"id": 400,
		"href": "\/choose\/flat-164\/",
		"plan": "http://etalonnormand.ru",
		"house": "2\u0430",
		"num": 1,
		"floor": 2,
		"price": 40567456
	},
	{
		"id": 400,
		"href": "\/choose\/flat-164\/",
		"plan": "http://etalonnormand.ru",
		"house": "2\u0430",
		"num": 1,
		"floor": 2,
		"price": 40567456
	},
	{
		"id": 400,
		"href": "\/choose\/flat-164\/",
		"plan": "http://etalonnormand.ru",
		"house": "2\u0430",
		"num": 1,
		"floor": 2,
		"price": 40567456
	},
	{
		"id": 400,
		"href": "\/choose\/flat-164\/",
		"plan": "http://etalonnormand.ru",
		"house": "2\u0430",
		"num": 1,
		"floor": 2,
		"price": 40567456
	},
	{
		"id": 400,
		"href": "\/choose\/flat-164\/",
		"plan": "http://etalonnormand.ru",
		"house": "2\u0430",
		"num": 1,
		"floor": 2,
		"price": 40567456
	},
	{
		"id": 400,
		"href": "\/choose\/flat-164\/",
		"plan": "http://etalonnormand.ru",
		"house": "2\u0430",
		"num": 1,
		"floor": 2,
		"price": 40567456
	},
	{
		"id": 400,
		"href": "\/choose\/flat-164\/",
		"plan": "http://etalonnormand.ru",
		"house": "2\u0430",
		"num": 1,
		"floor": 2,
		"price": 40567456
	},
	{
		"id": 400,
		"href": "\/choose\/flat-164\/",
		"plan": "http://etalonnormand.ru",
		"house": "2\u0430",
		"num": 1,
		"floor": 2,
		"price": 40567456
	}
	],
	"limit": 14,
	"offset": 0,
	"total": 50
}
