<?xml version="1.0" encoding="utf-8"?>
<!-- Generator: Adobe Illustrator 22.1.0, SVG Export Plug-In . SVG Version: 6.00 Build 0)  -->
<svg version="1.1" id="a" xmlns="http://www.w3.org/2000/svg" xmlns:xlink="http://www.w3.org/1999/xlink" x="0px" y="0px"
	 width="36px" height="50px" viewBox="0 0 36 50" style="enable-background:new 0 0 36 50;" xml:space="preserve">
<style type="text/css">
	.st0{fill:#169E70;}
</style>
<g>
	<g>
		<path class="st0" d="M20,24.6v-3.9c0-0.5-0.4-1-1-1c-0.5,0-1,0.4-1,1V25c0,0.3,0.1,0.5,0.3,0.7l2.1,2.1c0.4,0.4,1,0.4,1.4,0
			s0.4-1,0-1.4L20,24.6z M30,0H8C4.7,0,2,2.7,2,6v38c0,3.3,2.7,6,6,6h22c3.3,0,6-2.7,6-6V6C36,2.7,33.3,0,30,0z M34,44
			c0,2.2-1.8,4-4,4H8c-2.2,0-4-1.8-4-4V6c0-2.2,1.8-4,4-4h22c2.2,0,4,1.8,4,4V44z M19,14c-6.1,0-11,4.9-11,11s4.9,11,11,11
			s11-4.9,11-11S25.1,14,19,14z M19,34c-5,0-9-4-9-9s4-9,9-9s9,4,9,9S24,34,19,34z M17,12h4c0.6,0,1-0.4,1-1s-0.4-1-1-1h-4
			c-0.6,0-1,0.4-1,1S16.4,12,17,12z"/>
	</g>
</g>
</svg>
