<?xml version="1.0" encoding="utf-8"?>
<!-- Generator: Adobe Illustrator 22.1.0, SVG Export Plug-In . SVG Version: 6.00 Build 0)  -->
<svg version="1.1" id="a" xmlns="http://www.w3.org/2000/svg" xmlns:xlink="http://www.w3.org/1999/xlink" x="0px" y="0px"
	 width="36px" height="50px" viewBox="0 0 36 50" style="enable-background:new 0 0 36 50;" xml:space="preserve">
<style type="text/css">
	.st0{fill:#169E70;}
</style>
<g>
	<g>
		<path class="st0" d="M23.9,26.8c-2.3,0-4.1,1.8-4.1,4.1s1.8,4.1,4.1,4.1s4.1-1.8,4.1-4.1S26.2,26.8,23.9,26.8z M23.9,32.9
			c-1.1,0-2-0.9-2-2c0-1.1,0.9-2,2-2s2,0.9,2,2C25.9,32,25,32.9,23.9,32.9z M12.1,23.3c2.3,0,4.1-1.8,4.1-4.1s-1.8-4.1-4.1-4.1
			C9.9,15,8,16.9,8,19.1C8,21.4,9.9,23.3,12.1,23.3z M12.1,17.1c1.1,0,2,0.9,2,2s-0.9,2-2,2s-2-0.9-2-2S11,17.1,12.1,17.1z M30,0H6
			C2.7,0,0,2.7,0,6v38c0,3.3,2.7,6,6,6h24c3.3,0,6-2.7,6-6V6C36,2.7,33.3,0,30,0z M34,44c0,2.2-1.8,4-4,4H6c-2.2,0-4-1.8-4-4V6
			c0-2.2,1.8-4,4-4h24c2.2,0,4,1.8,4,4V44z M27.1,15.9c-0.4-0.4-1.1-0.4-1.5,0L8.9,32.6c-0.4,0.4-0.4,1.1,0,1.5
			c0.2,0.2,0.5,0.3,0.7,0.3c0.3,0,0.5-0.1,0.7-0.3L27,17.4C27.5,17,27.5,16.3,27.1,15.9z"/>
	</g>
</g>
</svg>
