<?xml version="1.0" encoding="utf-8"?>
<!-- Generator: Adobe Illustrator 22.1.0, SVG Export Plug-In . SVG Version: 6.00 Build 0)  -->
<svg version="1.1" id="Слой_1" xmlns="http://www.w3.org/2000/svg" xmlns:xlink="http://www.w3.org/1999/xlink" x="0px" y="0px"
	 width="50px" height="44px" viewBox="0 0 50 44" enable-background="new 0 0 50 44" xml:space="preserve">
<g>
	<g>
		<path fill-rule="evenodd" clip-rule="evenodd" fill="#3DA269" d="M25,50C25,50,25,50,25,50L25,50C25,50,25,50,25,50z M36,13H14
			c-1.1,0-2,0.9-2,2v22c0,1.1,0.9,2,2,2h1.5L13,42.5c0,0.8,0.7,1.5,1.5,1.5h2c0.8,0,1.5-0.7,1.5-1.5l2.5-3.5h9l2.5,3.5
			c0,0.8,0.7,1.5,1.5,1.5h2c0.8,0,1.5-0.7,1.5-1.5L34.5,39H36c1.1,0,2-0.9,2-2V15C38,13.9,37.1,13,36,13z M17.5,34
			c-1.4,0-2.5-1.1-2.5-2.5c0-1.4,1.1-2.5,2.5-2.5s2.5,1.1,2.5,2.5C20,32.9,18.9,34,17.5,34z M23,27h-8v-8h8V27z M32.5,34
			c-1.4,0-2.5-1.1-2.5-2.5c0-1.4,1.1-2.5,2.5-2.5s2.5,1.1,2.5,2.5C35,32.9,33.9,34,32.5,34z M35,27h-8v-8h8V27z M25,0
			C11.2,0,0,11.2,0,25c0,5.2,1.6,10,4.3,14H8c-3.1-3.8-5-8.7-5-14C3,12.8,12.8,3,25,3s22,9.8,22,22c0,5.3-1.9,10.2-5,14h3.7
			c2.7-4,4.3-8.8,4.3-14C50,11.2,38.8,0,25,0z"/>
	</g>
</g>
</svg>
