<?xml version="1.0" encoding="utf-8"?>
<!-- Generator: Adobe Illustrator 22.1.0, SVG Export Plug-In . SVG Version: 6.00 Build 0)  -->
<svg version="1.1" id="Слой_1" xmlns="http://www.w3.org/2000/svg" xmlns:xlink="http://www.w3.org/1999/xlink" x="0px" y="0px"
	 width="25px" height="30px" viewBox="0 0 25 30" enable-background="new 0 0 25 30" xml:space="preserve">
<g>
	<g>
		<path fill-rule="evenodd" clip-rule="evenodd" fill="#3DA269" d="M23,0H2C0.9,0,0,0.9,0,2v22c0,1.1,0.9,2,2,2h1v2.5
			C3,29.3,3.7,30,4.5,30h2C7.3,30,8,29.3,8,28.5V26h10v2.5c0,0.8,0.7,1.5,1.5,1.5h2c0.8,0,1.5-0.7,1.5-1.5V26c1.1,0,2-0.9,2-2V2
			C25,0.9,24.1,0,23,0z M5.3,22C4,22,3,20.9,3,19.5C3,18.1,4,17,5.3,17C6.5,17,9,18.1,9,19.5C9,20.9,6.5,22,5.3,22z M19.7,22
			c-1.2,0-3.7-1.1-3.7-2.5c0-1.4,2.5-2.5,3.7-2.5c1.2,0,2.2,1.1,2.2,2.5C22,20.9,21,22,19.7,22z M22,13H3V4h19V13z"/>
	</g>
</g>
</svg>
