<svg xmlns="http://www.w3.org/2000/svg" width="120" height="120" fill="none" viewBox="0 0 120 120">
    <g clip-path="url(#prefix__clip0)">
        <rect width="120" height="120" fill="#EDEDED" rx="60"/>
        <path fill="#D6D6D6" d="M49.083 97.183h-7.261c-1.06 0-1.939.878-1.939 1.938 0 1.059.879 1.938 1.938 1.938h7.262c1.06 0 1.939-.879 1.939-1.938 0-1.06-.88-1.938-1.939-1.938z"/>
        <path fill="#D6D6D6" d="M91.775 76.431l-10.544-4.083-5.375-5.375c-.336-.336-.801-.543-1.24-.569V62.14c2.532-2.713 4.341-6.124 5.065-9.975.465.026.904-.026 1.37-.103 2.584-.517 4.444-2.92 4.444-5.685v-1.422c0-1.602-.646-3.075-1.705-4.135 1.705-9.303.31-16.9-4.083-21.966-4.264-4.91-11.113-7.261-19.822-6.796-8.037.44-13.23 4.135-14.885 5.478-.904.104-2.429.414-3.98 1.344-2.145 1.292-4.729 4.006-4.729 9.588 0 4.884.776 8.941 1.344 11.267-1.886.93-3.153 2.92-3.153 5.194v1.396c0 2.765 1.86 5.168 4.445 5.685.44.104.905.13 1.37.104.723 3.85 2.532 7.287 5.065 9.975v4.29c-.465.025-.904.206-1.24.568l-5.376 5.375-10.544 4.084c-.206.077-.413.154-.594.258l-.155.077c-.18.078-.336.156-.517.259-.026.026-.051.026-.077.052-.207.103-.388.206-.569.31-.052.026-.077.051-.129.077-.155.104-.336.207-.491.31-.026.026-.052.026-.052.052h-.025C22 80.256 19.83 84.417 20.01 88.913l1.498 36.981c.052 1.033.905 1.86 1.939 1.86h.077c1.06-.051 1.912-.956 1.86-2.015l-1.576-36.98c-.026-.931.078-1.836.31-2.714l5.893 5.892c1.68 1.68 2.61 3.928 2.61 6.331v27.548c0 1.06.878 1.938 1.938 1.938s1.938-.878 1.938-1.938V98.242c0-3.41-1.344-6.641-3.747-9.07l-6.693-6.694c.568-.62 1.214-1.188 1.938-1.653.052-.026.077-.052.129-.078.103-.052.207-.13.31-.18l.155-.078.31-.156c.052-.025.104-.051.181-.077.155-.078.31-.13.44-.18.025 0 .025 0 .051-.027l9.795-3.773 7.494 11.242c.93 1.395 2.403 2.274 4.083 2.455.18.026.362.026.543.026.956 0 1.912-.259 2.739-.724l-1.654 36.438c-.052 1.059.775 1.964 1.86 2.016h.078c1.034 0 1.887-.802 1.938-1.861l1.5-33.828h4.03l1.5 33.828c.051 1.034.904 1.861 1.938 1.861h.077c1.06-.052 1.887-.957 1.86-2.016l-1.627-36.438c.827.465 1.757.724 2.74.724.18 0 .36 0 .542-.026 1.654-.155 3.153-1.06 4.083-2.455l7.494-11.242 9.794 3.773c1.37.517 2.559 1.37 3.49 2.43l-6.694 6.693c-2.43 2.429-3.747 5.633-3.747 9.07v27.548c0 1.06.879 1.939 1.938 1.939 1.06 0 1.938-.879 1.938-1.939V98.242c0-2.377.93-4.626 2.61-6.331l5.892-5.892c.233.878.336 1.783.31 2.713l-1.498 36.981c-.052 1.059.8 1.964 1.86 2.016h.078c1.034 0 1.886-.827 1.938-1.861l1.499-36.98c.181-5.453-3.101-10.467-8.218-12.457zM44.044 51.364c-.336-1.86-2.067-3.204-3.928-3.075-.155 0-.31 0-.44-.026-.775-.155-1.343-.982-1.343-1.886V44.98c0-.904.594-1.706 1.37-1.835.645-.103 1.266.13 1.653.646.362.465.827.801 1.37.956.801.233 1.68.104 2.352-.387 1.214-.853 2.274-1.912 3.178-3.101.646-.853.465-2.068-.387-2.714-.853-.646-2.068-.465-2.714.388-.44.594-.956 1.137-1.499 1.628-.62-.517-1.343-.904-2.093-1.111-.49-1.913-1.395-5.996-1.395-10.932 0-2.971.904-5.065 2.713-6.202 1.396-.904 2.894-.93 2.894-.93.491 0 .982-.207 1.344-.543.052-.052 4.807-4.47 12.973-4.91 7.469-.413 13.231 1.473 16.668 5.453 3.463 4.005 4.626 10.156 3.36 17.831-.517-.026-1.085.026-1.654.103l-1.809-4.367c-.362-.904-1.344-1.37-2.274-1.137-.18.052-18.09 4.574-25.584-4.755-.672-.827-1.886-.956-2.713-.31-.827.672-.957 1.887-.31 2.713 7.675 9.536 22.87 7.469 27.935 6.461l1.396 3.385c.594 1.448 2.144 2.249 3.67 1.887.62-.155 1.214-.155 1.446-.104.776.156 1.37.93 1.37 1.81v1.42c0 .931-.569 1.732-1.344 1.887-.155.026-.31.052-.44.026-1.86-.129-3.591 1.215-3.927 3.075-1.422 7.676-8.089 13.258-15.92 13.258-7.83.026-14.497-5.53-15.918-13.206zm8.606 34.241c-.492.491-1.06.517-1.37.491-.284-.026-.853-.155-1.24-.75l-7.547-11.318 3.024-3.024 11.577 10.13-4.444 4.471zm5.452 2.585l.13-2.662 1.73-1.732 1.732 1.732.13 2.662h-3.722zm1.86-9.717l-10.75-9.407v-3.721c3.127 1.99 6.823 3.127 10.75 3.127 3.929 0 7.624-1.137 10.751-3.127v3.721l-10.75 9.407zm9.899 6.9c-.388.568-.93.723-1.24.75-.311.025-.88 0-1.37-.492l-4.471-4.47 11.577-10.13 3.024 3.023-7.52 11.319z"/>
    </g>
    <defs>
        <clipPath id="prefix__clip0">
            <rect width="120" height="120" fill="#fff" rx="60"/>
        </clipPath>
    </defs>
</svg>
