<?xml version="1.0" encoding="utf-8"?>
<!-- Generator: Adobe Illustrator 22.0.1, SVG Export Plug-In . SVG Version: 6.00 Build 0)  -->
<svg version="1.1" id="fb" xmlns="http://www.w3.org/2000/svg" xmlns:xlink="http://www.w3.org/1999/xlink" x="0px" y="0px"
	 width="32px" height="32px" viewBox="0 0 32 32" enable-background="new 0 0 32 32" xml:space="preserve">
<path fill="#DB4437" d="M16,0c8.8,0,16,7.2,16,16s-7.2,16-16,16S0,24.8,0,16S7.2,0,16,0z"/>
<path fill-rule="evenodd" clip-rule="evenodd" fill="#FFFFFF" d="M24.5,16.5V19h-1.7v-2.4h-2.4v-1.8h2.4v-2.4h1.7v2.4H27v1.8H24.5z
	 M11.8,23C8.2,23,5,19.9,5,16c0-3.9,3.1-7,6.8-7c2,0,3.7,0.7,4.8,1.8l-2,2c-0.7-0.6-1.6-1-2.8-1c-2.1,0-4,1.9-4,4.2
	c0,2.3,1.9,4.2,4,4.2c2.3,0,3.5-1.2,3.9-2.8H12v-2.8h2.8h1h2.9c0.1,0.5,0.1,0.9,0.1,1.4C18.7,19.9,16.4,23,11.8,23z"/>
</svg>
