<?xml version="1.0" encoding="utf-8"?>
<!-- Generator: Adobe Illustrator 22.1.0, SVG Export Plug-In . SVG Version: 6.00 Build 0)  -->
<svg version="1.1" id="Layer_1" xmlns="http://www.w3.org/2000/svg" xmlns:xlink="http://www.w3.org/1999/xlink" x="0px" y="0px"
	 width="400px" height="94px" viewBox="0 0 400 94" enable-background="new 0 0 400 94" xml:space="preserve">
<g>
	<g>
		<path fill="#002E6D" d="M88.1,50.8C79.5,63,68.2,74.8,56.2,84l-0.1,0h-8.8l0.6-0.4c12.2-7.9,24.2-19.7,34.8-34
			c11-14.8,15.5-29.5,11.6-37.4c-1.9-3.7-5.6-5.7-10.6-5.7c-11.6,0-29.8,9.9-45.5,25.2h-3.8l0.3-0.4C53.3,12.7,74.3,0.6,88.2,0.6
			c6.3,0,10.8,2.3,13,6.6C105.9,16,100.8,32.7,88.1,50.8z M79.2,49.5c10-14.2,13.8-26.8,10.2-33.7c-1.8-3.4-5.2-5.2-10.1-5.2
			c-9.9,0-24.6,8-38.2,20.8l-0.4,0.4h4.1c10.8-9.5,21.8-15.2,30.4-15.2c3.6,0,6.3,1.4,7.6,4.1c3,5.9-0.5,17.2-8.7,28
			C58.4,69.8,39,81.1,28.8,81.1c-3.3,0-5.7-1.1-7.2-3.2c-2.2-3.1-2.1-8.3,0.1-14.7l0.3-0.9L0,84l40.6,0l0,0
			C54.2,77.2,69,64,79.2,49.5z"/>
		<path d="M65.3,50l-11,11H36.7l3.1-3.1h13.3l10-10L65.3,50z M40,44.3L23.3,61h4.3l16.7-16.7H40z M44.5,53.2l-3.1,3.1h10.9l9.6-9.6
			l-2.2-2.2l-8.7,8.7H44.5z M46.5,44.5L30,61h4.3l14.3-14.3L46.5,44.5z M51,46.7l-0.2,0.2L48,49.6l2.2,2.2l5.1-5.1l-7.2-7.2H26.6
			l-3.1,3.1h23.4L51,46.7z M48.8,37.9l7.6,7.6l2.2-2.2L50,34.8H31.3l-3.1,3.1L48.8,37.9L48.8,37.9z"/>
	</g>
	<path fill="#002E6D" d="M333.3,59.7h17.4v24h-5.5V64.5h-7v6.2v3.1c0,2.7,0,6.1-1.8,8c-1.4,1.6-3.5,2-5.3,2h-1.9v-4.8h0.8
		c1.3,0,2.3-0.4,2.7-1.2c0.5-1.1,0.5-3.3,0.5-4.1v-9.5h0V59.7z M375.3,66.9c0.3,1.3,0.4,2.8,0.4,4.5c0,1.8-0.1,3.4-0.4,4.7
		c-0.3,1.3-0.7,2.5-1.2,3.4c-0.9,1.5-2.2,2.7-3.8,3.4c-1.6,0.8-3.3,1.1-5.2,1.1c-1.8,0-3.4-0.3-4.9-0.9c-1.4-0.6-2.6-1.6-3.5-2.9
		c-1.3-2-2-4.8-1.9-8.6c0-1.3,0.1-2.5,0.3-3.7c0.2-1.2,0.5-2.2,1-3.1c0.8-1.8,2.1-3.2,3.8-4.1c1.7-1,3.6-1.4,5.8-1.4
		c1.8,0,3.4,0.3,4.9,1c1.4,0.7,2.6,1.7,3.5,3C374.5,64.4,375,65.5,375.3,66.9z M370.1,71.4c0-1.9-0.2-3.3-0.6-4.2
		c-0.4-0.9-0.9-1.6-1.6-2.1c-0.7-0.5-1.6-0.7-2.5-0.7c-0.9,0-1.8,0.2-2.5,0.7c-0.8,0.5-1.3,1.2-1.7,2c-0.3,0.7-0.5,1.4-0.6,2.1
		c-0.1,0.8-0.2,1.6-0.2,2.6c0,0.9,0,1.8,0.1,2.6c0.1,0.8,0.3,1.5,0.6,2c0.4,0.8,0.9,1.5,1.6,2c0.7,0.5,1.5,0.7,2.5,0.7
		c1,0,2-0.3,2.8-0.9c0.8-0.6,1.4-1.4,1.8-2.6c0.2-0.5,0.3-1,0.3-1.7C370,73.3,370.1,72.4,370.1,71.4z M394.6,59.7v9.8h-9.5v-9.8
		h-5.5v24h5.5v-10h9.5v10h5.4v-24H394.6z M129,50h-20.2v33.8h5.9V55.3H129V50z M148.8,67.6c0.2,1.5,0.3,2.9,0.3,4.3
		c0,1.4-0.1,2.8-0.4,4.3c-0.2,1.4-0.7,2.8-1.4,3.9c-0.7,1.2-1.6,2.2-2.8,2.9c-1.2,0.8-2.8,1.1-4.7,1.1c-1,0-2-0.2-3-0.6
		c-1-0.4-1.8-0.9-2.4-1.7h-0.1v11.7h-5.5V59.8h5.5v2.1l0.1,0c0.8-0.9,1.7-1.5,2.8-1.9c1-0.4,2.1-0.5,3.1-0.5c1.9,0,3.4,0.4,4.5,1.1
		c1.2,0.8,2,1.7,2.6,2.9C148.2,64.8,148.6,66.1,148.8,67.6z M143.4,71.9c0-0.8,0-1.6-0.1-2.4c-0.1-0.8-0.2-1.6-0.5-2.3
		c-0.3-0.7-0.7-1.3-1.3-1.8c-0.6-0.4-1.4-0.7-2.5-0.7c-1,0-1.8,0.2-2.4,0.7c-0.6,0.5-1,1.1-1.4,1.8c-0.3,0.7-0.5,1.5-0.6,2.3
		c-0.1,0.8-0.1,1.6-0.1,2.4s0,1.5,0.1,2.4c0.1,0.8,0.3,1.6,0.6,2.3c0.3,0.7,0.8,1.3,1.4,1.7c0.6,0.5,1.4,0.7,2.4,0.7
		c1,0,1.8-0.2,2.4-0.7c0.6-0.4,1.1-1,1.4-1.7c0.3-0.7,0.5-1.4,0.6-2.3C143.3,73.5,143.4,72.7,143.4,71.9z M163.8,68.7l-2.4,7.5h-0.2
		l-2.4-7.6l-3.1-8.8h-5.9l8.8,22.8l-1.2,3.8c-0.3,0.7-0.6,1.3-1.1,1.8c-0.5,0.5-1.1,0.8-1.8,0.8H153v4.6h2c1.5,0,2.8-0.3,4.1-1
		c1.3-0.7,2.2-2,2.9-3.8l10.6-28.9h-5.8L163.8,68.7z M175.2,83.8h5.5V64.5h9.1v19.3h5.5v-24h-20.1V83.8z M200.3,83.8h5.5V64.5h9.1
		v19.3h5.5v-24h-20.1V83.8z M243.4,63.6c0.5,1,0.8,2.3,0.8,3.9v16.3h-5.5v-2.1l-0.1-0.1c-0.6,0.8-1.5,1.5-2.7,1.8
		c-1.1,0.4-2.3,0.6-3.6,0.6c-2.6,0-4.6-0.6-6.1-1.9c-1.5-1.2-2.2-3-2.2-5.4c0-1,0.2-1.9,0.5-2.8c0.4-0.9,0.9-1.6,1.6-2.3
		c0.7-0.7,1.5-1.2,2.5-1.6c1-0.4,2.2-0.6,3.5-0.6h6.5v-1.7c0-0.5-0.1-0.9-0.2-1.3c-0.1-0.4-0.4-0.8-0.8-1.1
		c-0.4-0.3-0.8-0.6-1.5-0.7c-0.6-0.2-1.4-0.3-2.3-0.3c-1.3,0-2.4,0.2-3.3,0.5c-0.9,0.3-1.7,0.8-2.4,1.5l-2.9-3.7
		c1.2-1.2,2.5-2,4.1-2.4c1.6-0.5,3.2-0.7,4.9-0.7c1.4,0,2.6,0.1,3.8,0.4c1.2,0.2,2.3,0.7,3.2,1.3C242.1,61.8,242.8,62.6,243.4,63.6z
		 M238.7,73.8h-5.6c-1.4,0-2.4,0.3-3,0.8c-0.6,0.5-0.9,1.2-0.9,1.9c0,0.4,0.1,0.7,0.2,1.1c0.1,0.4,0.4,0.7,0.7,1
		c0.3,0.3,0.8,0.5,1.3,0.7c0.5,0.2,1.2,0.3,2,0.3c0.6,0,1.2-0.1,1.8-0.2c0.6-0.1,1.1-0.3,1.6-0.6c0.5-0.3,0.9-0.6,1.2-1
		c0.3-0.4,0.5-1,0.6-1.6c0-0.2,0.1-0.4,0.1-0.7V73.8z M278.7,53.5c-0.9-1.2-2.2-2.1-3.7-2.8c-1.6-0.7-3.5-1-5.7-1
		c-1.5,0-2.9,0.2-4.2,0.6c-1.3,0.4-2.4,0.9-3.5,1.6c-1,0.7-2,1.5-2.7,2.5c-0.8,1-1.3,2-1.8,3.2l5.5,2.2c0.4-1.3,1.2-2.4,2.4-3.2
		c1.2-0.8,2.5-1.2,4.1-1.2c1.2,0,2.3,0.2,3.1,0.6c0.8,0.4,1.5,0.9,2,1.6c0.5,0.7,0.8,1.4,1,2.2c0.2,0.8,0.3,1.7,0.3,2.6v1.6H265V69
		h10.4v2.3c0,0.9-0.1,1.8-0.4,2.7c-0.2,0.9-0.6,1.6-1.2,2.3c-0.5,0.7-1.2,1.2-2.1,1.6c-0.9,0.4-1.9,0.6-3.1,0.6c-1.7,0-3-0.4-4-1.3
		c-1-0.9-1.8-2-2.2-3.4l-5.5,2.3c0.8,2.5,2.3,4.4,4.3,5.8c2,1.4,4.5,2.1,7.5,2.1c2.1,0,3.9-0.3,5.5-1c1.6-0.7,2.9-1.6,3.9-2.7
		c1-1.1,1.8-2.5,2.4-4.1c0.5-1.6,0.8-3.3,0.8-5.1v-8.6c0-1.7-0.2-3.3-0.6-4.9C280.3,56.1,279.6,54.7,278.7,53.5z M284.1,64.5h7.3
		v19.3h5.5V64.5h7.3v-4.7h-20.1V64.5z M324.8,63.6c0.5,1,0.8,2.3,0.8,3.9v16.3h-5.5v-2.1l-0.1-0.1c-0.6,0.8-1.5,1.5-2.7,1.8
		c-1.1,0.4-2.3,0.6-3.6,0.6c-2.6,0-4.6-0.6-6.1-1.9c-1.5-1.2-2.2-3-2.2-5.4c0-1,0.2-1.9,0.5-2.8c0.4-0.9,0.9-1.6,1.6-2.3
		c0.7-0.7,1.5-1.2,2.6-1.6c1-0.4,2.2-0.6,3.5-0.6h6.5v-1.7c0-0.5-0.1-0.9-0.2-1.3c-0.1-0.4-0.4-0.8-0.8-1.1
		c-0.4-0.3-0.8-0.6-1.5-0.7c-0.6-0.2-1.4-0.3-2.3-0.3c-1.3,0-2.5,0.2-3.4,0.5c-0.9,0.3-1.7,0.8-2.4,1.5l-2.9-3.7
		c1.2-1.2,2.5-2,4.1-2.4c1.6-0.5,3.2-0.7,4.9-0.7c1.4,0,2.6,0.1,3.8,0.4c1.2,0.2,2.3,0.7,3.2,1.3C323.6,61.8,324.3,62.6,324.8,63.6z
		 M320.2,73.8h-5.6c-1.4,0-2.4,0.3-3,0.8c-0.6,0.5-0.9,1.2-0.9,1.9c0,0.4,0.1,0.7,0.2,1.1c0.1,0.4,0.4,0.7,0.7,1
		c0.3,0.3,0.8,0.5,1.3,0.7c0.5,0.2,1.2,0.3,2,0.3c0.6,0,1.2-0.1,1.8-0.2c0.6-0.1,1.1-0.3,1.6-0.6c0.5-0.3,0.9-0.6,1.2-1
		c0.3-0.4,0.5-1,0.6-1.6c0-0.2,0.1-0.4,0.1-0.7V73.8z"/>
</g>
</svg>
