<svg xmlns="http://www.w3.org/2000/svg" width="420" height="130" fill="none" viewBox="0 0 420 130">
    <g clip-path="url(#prefix__clip0)">
        <path fill="#2F9967" d="M420-2H0v132h420V-2z"/>
        <path fill="#fff" d="M19.671 24.606h6.765c3.472 0 5.875 1.778 5.875 4.889 0 1.778-.89 3.289-2.314 4.089v.089c2.047.622 3.115 2.577 3.115 4.444 0 3.822-3.026 5.511-6.587 5.511h-6.854V24.606zm6.765 7.733c1.513 0 2.314-1.066 2.314-2.4 0-1.333-.8-2.31-2.403-2.31h-3.204v4.71h3.293zm.356 8.267c1.78 0 2.76-1.156 2.76-2.756 0-1.6-.98-2.755-2.76-2.755h-3.65v5.511h3.65zM38.008 24.6h7.299c3.56 0 6.052 2.49 6.052 6.223 0 3.733-2.492 6.222-6.052 6.222H41.39v6.578H37.92V24.6h.089zm6.675 9.423c2.048 0 3.205-1.245 3.205-3.29 0-1.955-1.157-3.2-3.115-3.2h-3.294v6.49h3.205zM55.72 24.6h11.394v2.934h-7.922v4.978h6.41v2.933h-6.41V40.6h8.367v2.934H55.721V24.6zM73.167 24.6h3.65l3.738 9.423c.445 1.155.98 2.755.98 2.755h.088s.534-1.689.98-2.755L86.34 24.6h3.65l1.512 19.023h-3.471l-.801-10.667c-.09-1.244 0-2.933 0-2.933h-.09s-.622 1.866-1.067 2.933l-3.027 7.378h-3.026l-3.115-7.378c-.446-1.067-1.069-2.933-1.069-2.933h-.089s.09 1.689 0 2.933l-.8 10.667h-3.472L73.167 24.6zM98.891 36.956c.445-.711.623-.978.623-.978v-.089c-2.314-.977-3.382-3.11-3.382-5.51 0-2.667 1.335-4.445 3.204-5.245.801-.356 1.78-.534 3.65-.534h6.141v19.023h-3.471v-7.111h-2.759l-4.095 7.11h-3.827l3.916-6.666zm6.676-3.289v-6.044h-2.403c-1.246 0-1.87.177-2.404.444-.8.445-1.157 1.422-1.157 2.4 0 2.045 1.157 3.111 3.027 3.111h2.937v.09zM123.013 24.6h15.399v19.023h-3.471v-16h-8.456v16h-3.472V24.6zM153.099 24.244c5.608 0 9.791 4.267 9.791 9.69 0 5.6-4.272 9.955-9.791 9.955s-9.791-4.356-9.791-9.956c0-5.422 4.183-9.689 9.791-9.689zm0 16.534c3.471 0 6.231-2.934 6.231-6.756 0-3.733-2.76-6.489-6.231-6.489-3.472 0-6.231 2.845-6.231 6.49 0 3.821 2.759 6.755 6.231 6.755zM167.786 24.6h3.471v7.734h2.492L178.2 24.6h3.738l-5.429 9.067v.089l5.697 9.867h-3.917l-4.629-8.267h-2.492v8.267h-3.471V24.6h.089zM187.19 40.067c.445.356 1.246.978 2.136.978.979 0 1.514-.622 1.87-1.689l-7.477-14.667h3.827l4.006 8.445c.623 1.244 1.068 2.489 1.068 2.489h.089s.356-1.245.801-2.49l3.026-8.533h3.65l-5.875 15.023c-.801 2.044-2.136 4.266-4.896 4.266-1.424 0-2.67-.533-3.827-1.333l1.602-2.489zM203.924 24.6h15.399v19.023h-3.471v-16h-8.456v16h-3.472V24.6zM229.915 24.6h3.65l6.676 19.023h-3.561l-1.602-4.89h-6.676l-1.602 4.89h-3.56l6.675-19.022zm4.273 11.29l-1.691-5.067c-.356-1.067-.712-2.934-.712-2.934h-.089s-.445 1.867-.713 2.934l-1.691 5.066h4.896zM246.827 27.623h-6.23v-2.934h15.933v2.934h-6.231v16h-3.472v-16zM260.535 24.6h3.472v6.667h3.738c3.471 0 5.964 2.4 5.964 6.222 0 3.645-2.404 6.134-5.875 6.134h-7.21V24.6h-.089zm6.587 16c1.869 0 3.026-1.244 3.026-3.2 0-1.955-1.157-3.2-3.026-3.2h-3.115v6.4h3.115zM277.536 40.156h3.383v3.466h-3.383v-3.466zM20 57.356h15.399v19.022h-3.472v-16h-8.456v16H20V57.356zM50.086 57c5.607 0 9.79 4.267 9.79 9.689 0 5.6-4.272 9.956-9.79 9.956-5.608 0-9.791-4.356-9.791-9.956-.09-5.422 4.183-9.689 9.79-9.689zm0 16.533c3.471 0 6.23-2.933 6.23-6.755 0-3.734-2.759-6.49-6.23-6.49-3.472 0-6.231 2.845-6.231 6.49-.089 3.822 2.76 6.755 6.23 6.755zM64.683 57.356h3.472v7.733h2.492l4.45-7.733h3.74l-5.43 9.067v.089l5.696 9.866h-3.916l-4.629-8.266h-2.492v8.266h-3.472V57.356h.09zM87.737 57.356h3.65l6.676 19.022h-3.56L92.9 71.49h-6.676l-1.602 4.89h-3.56l6.675-19.023zm4.273 11.289l-1.691-5.067c-.356-1.066-.712-2.933-.712-2.933h-.09s-.444 1.867-.712 2.933l-1.78 5.067h4.985zM109.99 57.356h6.765c3.471 0 5.875 1.778 5.875 4.889 0 1.778-.89 3.289-2.315 4.089v.089c2.048.622 3.116 2.578 3.116 4.444 0 3.822-3.027 5.511-6.587 5.511h-6.854V57.356zm6.765 7.733c1.513 0 2.314-1.066 2.314-2.4 0-1.333-.801-2.31-2.403-2.31h-3.293v4.71h3.382zm.356 8.267c1.78 0 2.759-1.155 2.759-2.755 0-1.6-.979-2.756-2.759-2.756h-3.738v5.511h3.738zM128.237 57.356h3.472v6.667h3.56c3.472 0 5.964 2.4 5.964 6.222 0 3.644-2.403 6.133-5.875 6.133h-7.032V57.356h-.089zm6.498 16c1.869 0 2.938-1.244 2.938-3.2 0-1.956-1.158-3.2-3.027-3.2h-2.937v6.4h3.026zm8.901-16h3.472v19.022h-3.472V57.356zM153.071 57.356h10.949v2.933h-7.477v16h-3.472V57.356zM176.036 57c5.608 0 9.792 4.267 9.792 9.689 0 5.6-4.273 9.956-9.792 9.956-5.518 0-9.791-4.356-9.791-9.956-.089-5.422 4.184-9.689 9.791-9.689zm0 16.533c3.472 0 6.231-2.933 6.231-6.755 0-3.734-2.759-6.49-6.231-6.49-3.471 0-6.231 2.845-6.231 6.49-.089 3.822 2.76 6.755 6.231 6.755zM189.833 73.356c2.314-3.556 2.759-8 2.759-11.911v-4.178h11.839v16h2.136v6.756h-3.115v-3.734h-12.284v3.734h-3.204v-6.756h1.869v.089zm11.126 0V60.378h-5.073V61.8c0 3.734-.445 8.445-2.493 11.645h7.566v-.09zM211.196 57.356h3.471v8.089h8.723v-8.089h3.471v19.022h-3.471v-8h-8.723v8h-3.471V57.356zM241.459 57c5.608 0 9.791 4.267 9.791 9.689 0 5.6-4.272 9.956-9.791 9.956-5.518 0-9.791-4.356-9.791-9.956 0-5.422 4.184-9.689 9.791-9.689zm0 16.533c3.472 0 6.231-2.933 6.231-6.755 0-3.734-2.759-6.49-6.231-6.49-3.471 0-6.23 2.845-6.23 6.49 0 3.822 2.759 6.755 6.23 6.755zM255.968 57.356h3.471l-.267 13.511h-2.937l-.267-13.511zm.089 15.822h3.293v3.2h-3.293v-3.2zM264.958 57.356h3.472l-.267 13.511h-2.938l-.267-13.511zm.089 15.822h3.294v3.2h-3.294v-3.2zM274.037 57.356h3.471l-.267 13.511h-2.937l-.267-13.511zm.089 15.822h3.293v3.2h-3.293v-3.2zM345.947 35.668c-.616 0-1.232-.492-1.232-1.23V24.23c0-.615.493-1.23 1.232-1.23s1.231.492 1.231 1.23v10.208c0 .738-.615 1.23-1.231 1.23zM319.345 51.04c-.246 0-.369 0-.616-.122l-8.867-5.042c-.616-.37-.739-1.107-.493-1.722.37-.615 1.109-.738 1.725-.492l8.867 5.042c.616.37.739 1.107.493 1.722-.247.369-.616.615-1.109.615zM372.425 51.04c-.37 0-.862-.245-1.109-.614-.369-.615-.123-1.353.493-1.722l8.868-5.042c.616-.37 1.355-.123 1.724.492s.123 1.353-.493 1.721l-8.867 5.043c-.247 0-.37.123-.616.123z"/>
        <g opacity=".6">
            <path fill="#fff" d="M330.552 39.85c-.369 0-.862-.247-1.108-.616l-2.586-4.427c-.37-.615-.124-1.353.492-1.722s1.355-.123 1.725.492l2.586 4.427c.369.615.123 1.353-.493 1.722-.123 0-.369.123-.616.123zM315.281 66.291h-5.049c-.616 0-1.232-.492-1.232-1.23 0-.737.493-1.23 1.232-1.23h5.049c.616 0 1.232.493 1.232 1.23 0 .738-.493 1.23-1.232 1.23zM381.662 66.291h-5.049c-.616 0-1.232-.492-1.232-1.23 0-.737.493-1.23 1.232-1.23h5.049c.616 0 1.232.493 1.232 1.23 0 .738-.616 1.23-1.232 1.23zM361.218 39.85c-.246 0-.369 0-.615-.124-.616-.369-.739-1.107-.493-1.721l2.586-4.428c.37-.615 1.108-.738 1.724-.492.616.369.739 1.107.493 1.722l-2.586 4.427c-.247.37-.739.615-1.109.615z" opacity=".6"/>
        </g>
        <path fill="#FCD4D1" d="M371.44 80.312c0-6.272-2.217-11.93-5.911-16.357-3.695 9.593-12.932 16.357-23.769 16.357-7.882 0-14.902 3.566-19.582 9.1 3.695 9.594 12.931 16.358 23.769 16.358 14.04 0 25.493-11.315 25.493-25.458z" opacity=".3"/>
        <path fill="#2F9967" d="M365.405 63.955c-.739 1.721-1.601 3.443-2.586 5.042 2.217 3.198 3.448 7.133 3.448 11.315 0 11.315-9.113 20.416-20.444 20.416-9.483 0-17.365-6.396-19.705-15.128-1.478 1.107-2.832 2.46-4.064 3.936 3.695 9.593 12.932 16.357 23.769 16.357 14.04 0 25.494-11.438 25.494-25.458.123-6.273-2.094-12.053-5.912-16.48z"/>
        <path fill="#fff" d="M350.996 52.64h-10.222c-.615 0-1.231-.492-1.231-1.23v-5.042c0-.615.493-1.23 1.231-1.23h10.222c.616 0 1.231.492 1.231 1.23v5.042c0 .615-.492 1.23-1.231 1.23zm-8.99-2.46h7.758v-2.706h-7.758v2.706z"/>
        <path fill="#fff" d="M344.592 56.084c-.369 0-.616-.123-.862-.37-.246-.245-.37-.491-.37-.86V51.41c0-.615.493-1.23 1.232-1.23h2.586c.616 0 1.232.492 1.232 1.23v3.444c0 .369-.123.614-.37.86-.246.247-.615.37-.862.37h-2.586c.123 0 0 0 0 0zm1.355-2.46v-.984h-.123l.123.984c-.123 0 0 0 0 0zM343.853 83.632c-.369 0-.615-.123-.862-.369-.492-.491-.492-1.23 0-1.721l12.316-12.299c.492-.492 1.231-.492 1.724 0 .492.492.492 1.23 0 1.722l-12.316 12.298c-.246.246-.615.37-.862.37z"/>
        <path fill="#fff" d="M347.917 83.632c-.369 0-.615-.122-.862-.368l-8.251-8.24c-.493-.493-.493-1.23 0-1.722.492-.492 1.231-.492 1.724 0l8.252 8.24c.492.492.492 1.23 0 1.722-.247.246-.493.368-.863.368z"/>
        <path fill="#fff" d="M345.947 107c-14.778 0-26.724-11.93-26.724-26.688 0-14.759 11.946-26.688 26.724-26.688s26.724 11.93 26.724 26.688S360.602 107 345.947 107zm0-50.916c-13.424 0-24.261 10.822-24.261 24.228 0 13.405 10.837 24.228 24.261 24.228s24.261-10.823 24.261-24.228c0-13.406-10.96-24.228-24.261-24.228z"/>
        <path fill="#fff" d="M345.947 101.957c-11.946 0-21.676-9.715-21.676-21.645s9.73-21.646 21.676-21.646c11.946 0 21.675 9.716 21.675 21.646 0 11.93-9.852 21.645-21.675 21.645zm0-40.708c-10.592 0-19.213 8.609-19.213 19.186s8.621 19.186 19.213 19.186c10.591 0 19.212-8.61 19.212-19.186 0-10.577-8.621-19.186-19.212-19.186zM22.637 96.122h5.035c2.398 0 3.957 1.317 3.477 3.711-.24 1.437-1.199 2.514-2.398 3.113 1.439.479 2.038 1.915 1.799 3.472-.48 2.753-2.878 4.07-5.395 4.07H20l2.637-14.366zm2.997 12.69c1.559 0 2.638-.958 2.878-2.514.24-1.437-.48-2.395-2.038-2.395h-3.237l-.84 4.909h3.238zm.96-6.585c1.318 0 2.277-.957 2.517-2.155.24-1.316-.36-2.154-1.798-2.154h-2.997l-.72 4.309h2.997zM34.386 100.19h2.038l-.6 3.711h2.038c2.158 0 3.597.958 3.117 3.353-.36 1.915-1.798 3.232-4.315 3.232h-4.076l1.798-10.296zm2.158 8.979c1.438 0 2.158-.718 2.398-1.796.24-1.077-.36-1.915-1.679-1.915h-1.678l-.6 3.711h1.559zm7.193-8.979h2.038l-1.798 10.296h-2.038l1.798-10.296zM48.892 100.19h6.473l-.24 1.676H50.57l-1.558 8.62h-2.038l1.918-10.296zM62.079 99.95c3.117 0 5.155 2.275 4.675 5.388-.6 3.113-3.476 5.387-6.473 5.387-3.117 0-5.155-2.274-4.556-5.387.48-3.113 3.357-5.387 6.354-5.387zm-1.559 9.099c1.918 0 3.837-1.556 4.196-3.711.36-2.155-.959-3.711-2.877-3.711-1.918 0-3.836 1.556-4.196 3.711-.36 2.155.96 3.711 2.877 3.711zM68.433 108.93c1.798-2.036 2.517-5.148 2.757-6.824l.36-1.916h6.953l-1.559 8.74h1.439l-.72 4.07h-1.798l.48-2.394h-7.673l-.48 2.394h-1.797l.719-4.07h1.319zm6.593 0l1.199-7.064h-3.117l-.12.599c-.24 1.556-.959 4.429-2.637 6.465h4.675zM82.339 100.19h2.038l-.72 4.19h5.276l.719-4.19h1.918l-1.798 10.296h-1.918l.839-4.43h-5.275l-.84 4.43h-2.037l1.798-10.296zM99.362 104.141h.48v-.24c.24-1.676-.6-2.274-1.918-2.274-1.08 0-2.158.359-3.117.958l-.6-1.437c.96-.718 2.638-1.197 4.076-1.197 2.638 0 3.837 1.436 3.357 4.07l-1.199 6.465h-1.798l.24-1.078c.12-.478.24-.838.24-.838-.84 1.198-2.278 2.155-3.717 2.155-1.798 0-3.237-1.077-2.877-3.112.6-3.113 4.675-3.472 6.833-3.472zm-3.117 5.148c1.679 0 3.117-1.796 3.357-3.233l.12-.359h-.48c-1.438 0-4.196.12-4.555 2.035-.24.719.24 1.557 1.558 1.557zM105.836 107.134c.24-.359.599-.599.599-.599-1.079-.359-2.038-1.436-1.678-2.993.36-2.155 2.038-3.232 4.316-3.232h4.076l-1.798 10.296h-2.038l.599-3.712h-1.678l-3.237 3.712h-2.158l2.997-3.472zm4.316-1.796l.719-3.711h-1.678c-1.319 0-2.278.479-2.518 1.796-.24 1.316.6 1.915 1.798 1.915h1.679zM121.661 100.19h1.918l-1.079 6.106c-.12.598-.24 1.317-.36 1.436.12-.239.719-.838 1.199-1.436l5.514-6.106h1.918l-1.798 10.296h-1.918l1.079-6.106c.12-.479.24-1.197.36-1.317-.12.24-.72.838-1.199 1.317l-5.515 6.106h-1.918l1.799-10.296zM134.008 100.19H143l-1.799 10.296h-1.918l1.559-8.62h-5.155l-1.559 8.62h-2.038l1.918-10.296zM151.271 99.95c3.117 0 5.155 2.275 4.676 5.388-.6 3.113-3.477 5.387-6.474 5.387-3.117 0-5.155-2.274-4.555-5.387.359-3.113 3.237-5.387 6.353-5.387zm-1.678 9.099c1.918 0 3.836-1.556 4.196-3.711.36-2.155-.959-3.711-2.877-3.711-1.918 0-3.836 1.556-4.196 3.711-.36 2.155.959 3.711 2.877 3.711zM161.222 101.986h-3.597l.24-1.676h9.111l-.24 1.676h-3.596l-1.559 8.62h-1.918l1.559-8.62zM173.45 99.95c2.877 0 4.076 2.156 3.596 4.789 0 .24-.12.599-.239.839h-7.553c-.24 2.274 1.079 3.471 2.997 3.471 1.079 0 2.278-.479 3.237-1.197l.599 1.437c-1.199.958-2.877 1.436-4.316 1.436-3.237 0-5.035-2.394-4.555-5.387.599-3.232 3.237-5.387 6.234-5.387zm1.678 4.311c.24-1.796-.719-2.754-2.038-2.754-1.558 0-2.877.958-3.477 2.754h5.515zM180.403 100.19h2.038l-.719 4.19h1.438l3.597-4.19h2.277l-4.315 4.909 2.877 5.387h-2.398l-2.278-4.43h-1.438l-.839 4.43h-2.038l1.798-10.296zM195.748 104.141h.479v-.24c.24-1.676-.599-2.274-1.918-2.274-1.079 0-2.158.359-3.117.958l-.599-1.437c.959-.718 2.637-1.197 4.076-1.197 2.637 0 3.836 1.436 3.357 4.07l-1.199 6.465h-1.798l.239-1.078c.12-.478.24-.838.24-.838-.839 1.198-2.278 2.155-3.716 2.155-1.799 0-3.237-1.077-2.877-3.112.599-3.113 4.795-3.472 6.833-3.472zm-3.117 5.148c1.678 0 3.117-1.796 3.357-3.233l.12-.359h-.48c-1.439 0-4.196.12-4.556 2.035-.239.719.24 1.557 1.559 1.557zM212.292 99.95c3.117 0 5.155 2.275 4.675 5.388-.599 3.113-3.476 5.387-6.473 5.387-3.117 0-5.155-2.274-4.556-5.387.479-3.113 3.357-5.387 6.354-5.387zm-1.559 9.099c1.918 0 3.837-1.556 4.196-3.711.36-2.155-.959-3.711-2.877-3.711-1.918 0-3.836 1.556-4.196 3.711-.36 2.155.959 3.711 2.877 3.711zM222.242 101.986h-3.597l.24-1.676h9.111l-.24 1.676h-3.596l-1.559 8.62h-1.798l1.439-8.62zM241.783 99.233c.599-.839 1.079-1.317 1.079-1.317h-7.553l.36-1.796h9.59l-.239 1.436-8.752 13.05h-2.158l7.673-11.373zM244.3 108.451h2.038l-2.517 4.19h-1.439l1.918-4.19zM250.414 107.373c.48.719 1.439 1.557 2.878 1.557 1.678 0 3.356-1.197 3.596-2.874.36-1.676-.839-2.992-2.757-2.992-.839 0-1.798.239-2.518.718l-1.079-.479 1.918-7.183h7.313l-.359 1.796h-5.515l-.839 2.993c-.12.478-.24.718-.24.718.36-.24 1.319-.479 1.918-.479 2.997 0 4.675 2.155 4.196 4.669-.48 2.754-2.997 4.789-5.994 4.789-1.678 0-3.237-.719-4.076-2.035l1.558-1.198zM274.271 96.12h1.918l-13.547 14.366h-1.918l13.547-14.366zm-11.749 2.873c.24-1.676 1.919-2.993 3.597-2.993s2.877 1.317 2.637 2.993c-.239 1.676-1.918 2.993-3.596 2.993-1.798 0-2.997-1.317-2.638-2.993zm4.556 0c.12-.838-.36-1.556-1.319-1.556-.839 0-1.558.718-1.798 1.556-.12.838.36 1.556 1.199 1.556.959-.119 1.798-.718 1.918-1.556zm4.915 5.746c1.679 0 2.877 1.317 2.518 2.993-.24 1.676-1.918 2.993-3.597 2.993-1.678 0-2.877-1.317-2.517-2.993.24-1.556 1.798-2.993 3.596-2.993zm-.839 4.55c.839 0 1.678-.719 1.798-1.557.12-.838-.359-1.556-1.199-1.556-.839 0-1.558.718-1.798 1.556-.12.838.36 1.557 1.199 1.557z"/>
    </g>
    <defs>
        <clipPath id="prefix__clip0">
            <path fill="#fff" d="M0 0H420V130H0z"/>
        </clipPath>
    </defs>
</svg>
