<?xml version="1.0" encoding="utf-8"?>
<!-- Generator: Adobe Illustrator 23.0.1, SVG Export Plug-In . SVG Version: 6.00 Build 0)  -->
<svg version="1.1" id="fb" xmlns="http://www.w3.org/2000/svg" xmlns:xlink="http://www.w3.org/1999/xlink" x="0px" y="0px"
	 width="30px" height="15px" viewBox="0 0 30 15" style="enable-background:new 0 0 30 15;" xml:space="preserve">
<style type="text/css">
	.st0{fill:#fca742;}
</style>
<g>
	<g>
		<path class="st0" d="M30,7.5c0-0.1-0.1-0.3-0.1-0.4l0,0l-7-7c-0.2-0.2-0.5-0.2-0.7,0s-0.2,0.5,0,0.7L28.3,7H0.5C0.2,7,0,7.2,0,7.5
			S0.2,8,0.5,8h27.8l-6.1,6.1c-0.2,0.2-0.2,0.5,0,0.7s0.5,0.2,0.7,0l7-7l0,0C29.9,7.8,30,7.6,30,7.5z"/>
	</g>
</g>
</svg>
