<?xml version="1.0" encoding="utf-8"?>
<!-- Generator: Adobe Illustrator 22.1.0, SVG Export Plug-In . SVG Version: 6.00 Build 0)  -->
<svg version="1.1" id="a" xmlns="http://www.w3.org/2000/svg" xmlns:xlink="http://www.w3.org/1999/xlink" x="0px" y="0px"
	 width="18px" height="25px" viewBox="0 0 18 25" style="enable-background:new 0 0 18 25;" xml:space="preserve">
<style type="text/css">
	.st0{fill:#169E70;}
</style>
<g>
	<g>
		<path class="st0" d="M6,9.1c1.1,0,2.1-0.9,2.1-2.1c0-1.1-1-2-2.1-2S3.9,5.9,3.9,7S4.9,9.1,6,9.1z M6,6c0.6,0,1,0.5,1,1
			c0,0.6-0.5,1-1,1C5.4,8,5,7.6,5,7S5.4,6,6,6z M12,10.9c-1.1,0-2.1,0.9-2.1,2.1c0,1.1,0.9,2.1,2.1,2.1c1.1,0,2.1-0.9,2.1-2.1
			C14.1,11.9,13.1,10.9,12,10.9z M12,14c-0.6,0-1-0.5-1-1c0-0.6,0.5-1,1-1c0.6,0,1,0.5,1,1C13,13.6,12.6,14,12,14z M15,0H3
			C1.3,0,0,1.3,0,3v19c0,1.7,1.3,3,3,3h12c1.7,0,3-1.3,3-3V3C18,1.3,16.7,0,15,0z M17,22c0,1.1-0.9,2-2,2H3c-1.1,0-2-0.9-2-2V3
			c0-1.1,0.9-2,2-2h12c1.1,0,2,0.9,2,2V22z M13.5,5.5c-0.2-0.2-0.5-0.2-0.7,0l-8.3,8.3c-0.2,0.2-0.2,0.5,0,0.7
			c0.1,0.1,0.2,0.2,0.4,0.2c0.1,0,0.3-0.1,0.4-0.2l8.3-8.3C13.7,6,13.7,5.7,13.5,5.5z"/>
	</g>
</g>
</svg>
