<?xml version="1.0" encoding="utf-8"?>
<!-- Generator: Adobe Illustrator 22.1.0, SVG Export Plug-In . SVG Version: 6.00 Build 0)  -->
<svg version="1.1" id="a" xmlns="http://www.w3.org/2000/svg" xmlns:xlink="http://www.w3.org/1999/xlink" x="0px" y="0px"
	 width="18px" height="25px" viewBox="0 0 18 25" style="enable-background:new 0 0 18 25;" xml:space="preserve">
<style type="text/css">
	.st0{fill:#169E70;}
</style>
<g>
	<g>
		<path class="st0" d="M15,0H3C0.5,0,0,0.5,0,3v19c0,2.5,0.5,3,3,3h12c2.4,0,3-0.5,3-3V3C18,0.5,17.4,0,15,0z M17,22
			c0,1.6-0.5,2-2,2H3c-1.5,0-2-0.5-2-2V3c0-1.5,0.5-2,2-2h12c1.5,0,2,0.4,2,2V22z M14.5,4h-11C3.2,4,3,4.2,3,4.5S3.2,5,3.5,5h11
			C14.8,5,15,4.8,15,4.5S14.8,4,14.5,4z M14.5,7h-11C3.2,7,3,7.2,3,7.5S3.2,8,3.5,8h11C14.8,8,15,7.8,15,7.5S14.8,7,14.5,7z
			 M14.5,10h-11C3.2,10,3,10.2,3,10.5S3.2,11,3.5,11h11c0.3,0,0.5-0.2,0.5-0.5S14.8,10,14.5,10z M9.5,13h-6C3.2,13,3,13.2,3,13.5
			S3.2,14,3.5,14h6c0.3,0,0.5-0.2,0.5-0.5S9.8,13,9.5,13z"/>
	</g>
</g>
</svg>
