<?xml version="1.0" encoding="utf-8"?>
<!-- Generator: Adobe Illustrator 22.1.0, SVG Export Plug-In . SVG Version: 6.00 Build 0)  -->
<svg version="1.1" id="a" xmlns="http://www.w3.org/2000/svg" xmlns:xlink="http://www.w3.org/1999/xlink" x="0px" y="0px"
	 width="18px" height="25px" viewBox="0 0 18 25" style="enable-background:new 0 0 18 25;" xml:space="preserve">
<style type="text/css">
	.st0{fill:#169E70;}
</style>
<g>
	<g>
		<path class="st0" d="M10,11.3V9.4c0-0.3-0.2-0.5-0.5-0.5S9,9.1,9,9.4v2.1c0,0.1,0.1,0.3,0.1,0.4l1.1,1.1c0.2,0.2,0.5,0.2,0.7,0
			s0.2-0.5,0-0.7L10,11.3z M15,0H4C2.3,0,1,1.3,1,3v19c0,1.7,1.3,3,3,3h11c1.7,0,3-1.3,3-3V3C18,1.3,16.7,0,15,0z M17,22
			c0,1.1-0.9,2-2,2H4c-1.1,0-2-0.9-2-2V3c0-1.1,0.9-2,2-2h11c1.1,0,2,0.9,2,2V22z M9.5,6C6.5,6,4,8.5,4,11.5S6.5,17,9.5,17
			s5.5-2.5,5.5-5.5S12.5,6,9.5,6z M9.5,16C7,16,5,14,5,11.5S7,7,9.5,7S14,9,14,11.5S12,16,9.5,16z M8.5,5h2C10.8,5,11,4.8,11,4.5
			S10.8,4,10.5,4h-2C8.2,4,8,4.2,8,4.5S8.2,5,8.5,5z"/>
	</g>
</g>
</svg>
