<?xml version="1.0" encoding="utf-8"?>
<!-- Generator: Adobe Illustrator 22.0.1, SVG Export Plug-In . SVG Version: 6.00 Build 0)  -->
<svg version="1.1" xmlns="http://www.w3.org/2000/svg" xmlns:xlink="http://www.w3.org/1999/xlink" x="0px" y="0px" width="50px"
	 height="50px" viewBox="0 0 50 50" enable-background="new 0 0 50 50" xml:space="preserve">
<g id="Layer_1_1_">
	<circle fill="#FFFFFF" cx="25" cy="25" r="25"/>
</g>
<g id="Layer_1">
	<g>
		<path fill-rule="evenodd" clip-rule="evenodd" fill="#1EA361" d="M12,35.4V15.6c0-1.2,1-2.1,2.1-2.1h20.3L12,35.4z"/>
		<path fill-rule="evenodd" clip-rule="evenodd" fill="#FEDB43" d="M12,35.9v-0.4l22.4-22h0.4c1.2,0,2.1,0.9,2.1,2.1V16l-22.4,22
			h-0.4C13,37.9,12,37,12,35.9z"/>
		<polygon fill-rule="evenodd" clip-rule="evenodd" fill="#5384C4" points="14.6,37.9 24.5,28.2 34.4,37.9 		"/>
		<path fill-rule="evenodd" clip-rule="evenodd" fill="#FFFFFF" d="M34.4,37.9l-10.1-9.9l2.6-2.5L37,35.4v0.4c0,1.2-1,2.1-2.1,2.1
			H34.4z"/>
		<polygon fill-rule="evenodd" clip-rule="evenodd" fill="#C2C2C1" points="37,35.4 27,25.7 37,16 		"/>
		<path fill="#EFEFEF" d="M16.5,16.2c1.3-0.6,2.9-0.3,3.9,0.6c-0.3,0.3-0.7,0.6-1,1c-1-1-3-0.5-3.5,0.8c-0.6,1.3,0.4,3,1.9,3
			c1,0.1,1.9-0.5,2.1-1.5c-0.7,0-1.4,0-2,0c0-0.4,0-0.8,0-1.2c1.1,0,2.3-0.1,3.4,0c0.1,0.8,0,1.7-0.4,2.4c-0.7,1.3-2.4,1.8-3.8,1.5
			c-1.7-0.4-3-2.1-2.8-3.8C14.5,17.8,15.3,16.7,16.5,16.2z"/>
		<g>
			<g>
				<g>
					<path fill="#DC4B3E" d="M32.6,10h0.8c2,0.1,4,1.1,5.2,2.7c0.8,1,1.3,2.3,1.4,3.5v0.5c0,2.5-1.7,4.5-3,6.4
						c-1.6,2.2-3,4.5-3.4,7.2c-0.1,0.5,0,1.1-0.5,1.3c-0.1-0.1-0.3-0.2-0.4-0.3c-0.2-1.5-0.5-3-1.2-4.3c-0.7-1.6-1.8-3-2.8-4.4
						c-0.6-0.8-1.2-1.7-1.7-2.6c-0.8-1.4-1.1-3-0.7-4.6c0.3-1.2,0.9-2.4,1.8-3.3C29.2,10.8,30.9,10.1,32.6,10z M32.4,14.3
						c-1,0.2-1.8,1-1.8,2c-0.1,0.9,0.4,1.8,1.3,2.2c0.9,0.5,2.1,0.3,2.8-0.4c0.7-0.6,1-1.7,0.6-2.5C34.9,14.7,33.6,14.1,32.4,14.3z"
						/>
				</g>
			</g>
			<g>
				<path fill="#802C27" d="M32.4,14.3c1.1-0.3,2.4,0.3,2.8,1.4c0.4,0.8,0.1,1.9-0.6,2.5c-0.8,0.7-1.9,0.8-2.8,0.4
					c-0.8-0.4-1.4-1.3-1.3-2.2C30.7,15.4,31.5,14.6,32.4,14.3z"/>
			</g>
		</g>
	</g>
</g>
</svg>
